{
  "type": "service_account",
  "project_id": "sheepsync",
  "private_key_id": "###SA_PRIVATE_KEY_ID###",
  "private_key": "###SA_PRIVATE_KEY###",
  "client_email": "###SA_CLIENT_MAIL###@sheepsync.iam.gserviceaccount.com",
  "client_id": "###SA_CLIENT_ID###",
  "auth_uri": "https://accounts.google.com/o/oauth2/auth",
  "token_uri": "https://oauth2.googleapis.com/token",
  "auth_provider_x509_cert_url": "https://www.googleapis.com/oauth2/v1/certs",
  "client_x509_cert_url": "https://www.googleapis.com/robot/v1/metadata/x509/firebase-adminsdk-cyr2r%40sheepsync.iam.gserviceaccount.com"
}

